<svg width="36" height="36" viewBox="0 0 36 36" fill="none" xmlns="http://www.w3.org/2000/svg">
<path d="M18 0C8.0744 0 0 8.0744 0 18C0 27.9256 8.0744 36 18 36C27.9256 36 36 27.9256 36 18C36 8.0744 27.9256 0 18 0Z" fill="#FCDAB7"/>
<path d="M25.8749 19.4999H19.4998V25.875C19.4998 26.7031 18.828 27.3749 17.9999 27.3749C17.1718 27.3749 16.5 26.7031 16.5 25.875V19.4999H10.1249C9.29681 19.4999 8.625 18.8281 8.625 18C8.625 17.1719 9.29681 16.5001 10.1249 16.5001H16.5V10.125C16.5 9.29691 17.1718 8.62509 17.9999 8.62509C18.828 8.62509 19.4998 9.29691 19.4998 10.125V16.5001H25.8749C26.703 16.5001 27.3748 17.1719 27.3748 18C27.3748 18.8281 26.703 19.4999 25.8749 19.4999Z" fill="#1D2D50"/>
</svg>
