<svg width="71" height="164" viewBox="0 0 71 164" fill="none" xmlns="http://www.w3.org/2000/svg">
<path d="M49.685 0.0704651C49.6594 0.108902 48.8522 0.185776 47.904 0.26265C45.8669 0.403595 44.7009 0.71109 43.0481 1.50546C40.8572 2.55609 39.3709 4.43953 38.884 6.73297C38.4997 8.57796 38.6534 9.73109 39.6144 11.922C40.6778 14.3308 41.4081 15.2148 43.0481 16.022C43.7912 16.3936 44.0475 16.6242 44.3422 17.2136C44.7009 17.9183 44.6753 18.3923 44.2012 19.5455C43.6247 20.9036 43.4325 21.083 42.2794 21.2751C41.1262 21.4673 40.6265 21.6723 40.0628 22.172C39.8194 22.377 39.294 22.723 38.884 22.9408C38.1537 23.3251 38.1409 23.3251 36.0781 23.3251C34.7328 23.3251 33.7847 23.3892 33.3747 23.5045C29.1465 24.6577 28.7622 24.837 27.1606 26.3489C26.5584 26.9255 25.8922 27.4892 25.6615 27.6045C25.4309 27.7198 24.2265 28.1042 22.9709 28.463C18.0765 29.8467 16.2828 30.7308 13.4769 33.1523C12.7594 33.7802 11.8369 34.4848 11.4269 34.7283C10.1584 35.4842 10.12 35.5355 10.12 36.6373V37.6111L11.8497 40.9808C12.7978 42.8258 13.9253 44.9655 14.3737 45.7214C15.6165 47.8483 18.3969 51.4614 20.3315 53.4602C21.9844 55.1514 22.0356 55.2155 22.0356 55.7664C22.0356 56.4326 21.395 59.2642 20.9337 60.6608C20.6519 61.4808 20.6134 61.7883 20.6775 62.4161C20.7672 63.2233 20.7928 63.1977 19.9215 63.3258C19.755 63.3514 19.6525 63.4795 19.6269 63.7102C19.5756 64.1714 20.2419 64.6198 20.8184 64.5045C21.0362 64.4661 21.6256 64.5302 22.1381 64.6327C23.24 64.8761 24.0856 64.8889 24.7903 64.6967C25.1747 64.5942 25.4565 64.5942 25.969 64.7223C26.9684 64.953 27.1606 64.8248 27.8653 63.3898C28.6212 61.8652 28.6981 61.2373 28.3265 59.0848C28.1728 58.2136 28.0575 57.1502 28.0575 56.7145C28.0575 55.0233 27.3784 53.4602 25.7897 51.4998C23.5603 48.7195 22.5097 46.7977 21.6897 43.9533C21.5103 43.3511 21.0875 42.1211 20.7287 41.2114C20.0753 39.5201 20.024 39.0461 20.4725 38.9052C20.5878 38.8667 21.4847 38.6873 22.4456 38.508C24.5597 38.1236 25.9178 37.7136 27.5834 36.9576C28.2753 36.6373 29.1337 36.3427 29.4797 36.3042C30.0434 36.2402 30.1075 36.253 30.21 36.5348C30.3125 36.8167 30.6712 40.148 31.0044 44.0173C31.0684 44.7861 31.1837 46.6055 31.2606 48.0533C31.4144 51.2436 31.3119 53.1783 30.6969 58.1111C30.4534 60.0842 30.1587 62.8773 30.0306 64.3251C29.8384 66.7851 29.8 67.003 29.4284 67.7205C29.0825 68.3995 29.0312 68.6301 29.0056 69.7705C28.98 70.4752 28.7878 72.2048 28.5572 73.6142C28.0703 76.7148 27.9806 78.1114 28.1728 79.2773C28.4547 80.8661 29.8128 84.4664 30.5559 85.5683C30.7353 85.8245 30.8762 86.1705 30.8762 86.337C30.8762 86.747 29.5694 91.6542 29.1081 93.0252C28.8903 93.6273 28.4675 94.7548 28.1344 95.5492C27.814 96.3436 27.34 97.6889 27.0965 98.5473C26.8531 99.4058 26.1356 101.379 25.5078 102.942C24.1497 106.299 23.445 108.375 23.0606 110.13C22.689 111.86 22.6506 111.936 21.9715 112.257C21.2028 112.615 20.5494 113.435 18.7684 116.241C17.9997 117.459 17.1028 118.83 16.7697 119.291C15.9753 120.405 15.7319 120.905 15.2706 122.494C14.6172 124.659 14.3737 125.876 14.1047 128.17C13.8612 130.22 13.7972 130.489 12.8234 133.359C10.6709 139.752 9.78685 141.79 8.63373 142.93C8.05717 143.519 7.49342 143.84 4.78998 145.185C1.16404 146.966 0.561854 147.427 0.203104 148.644C-0.206896 150.015 0.0109169 151.245 0.792479 151.873C1.07435 152.104 1.77904 152.936 2.34279 153.744C3.50873 155.358 4.27748 156.088 5.50748 156.729L6.34029 157.165V157.805C6.34029 158.523 6.64779 159.048 7.59592 159.919C8.03154 160.329 8.08279 160.419 7.95467 160.65C7.82654 160.893 7.90342 160.983 8.67217 161.61C9.82529 162.507 10.3378 162.815 10.9272 162.917C11.3244 162.994 11.4525 163.097 11.555 163.379C11.7215 163.865 12.1572 163.942 14.3481 163.93C15.9753 163.904 17.9228 163.622 19.1656 163.225C19.7165 163.058 20.1778 162.187 20.1265 161.431C20.1265 161.329 19.8575 160.944 19.55 160.573C19.2425 160.214 18.9606 159.842 18.935 159.765C18.9094 159.689 18.589 159.573 18.2303 159.522C17.7306 159.432 17.3975 159.266 16.8209 158.817C16.4109 158.484 16.0009 158.125 15.924 158.01C15.6422 157.651 15.7447 157.229 16.2444 156.678L16.7184 156.152L16.6928 154.922C16.6672 154.243 16.7184 153.167 16.8081 152.526C16.949 151.399 16.9362 151.322 16.6544 150.797C16.5006 150.489 16.2828 149.887 16.1803 149.464C16.0906 149.054 15.9112 148.606 15.7959 148.478C15.4756 148.119 15.6422 147.017 16.3725 144.852C17.4615 141.572 17.9869 140.406 20.1522 136.524C22.1253 132.975 22.8556 131.975 23.4706 131.975C23.6115 131.975 23.9447 132.334 24.3034 132.872C25.6744 134.896 25.6872 134.909 25.7384 135.806C25.8281 137.203 25.8153 137.664 25.7128 137.959C25.6231 138.202 25.6872 138.33 26.0075 138.612C26.3919 138.971 26.4047 138.996 26.2637 139.56C26.0587 140.38 26.3278 140.931 27.135 141.341C27.7756 141.674 27.7628 141.61 27.5834 142.776C27.5194 143.237 27.5578 143.301 28.4931 144.237C29.1337 144.877 29.4669 145.313 29.4669 145.505C29.4669 145.838 29.7231 146.12 30.274 146.402C30.8378 146.684 31.3887 147.222 31.3887 147.491C31.3887 147.914 33.0159 148.503 34.169 148.503C35.6937 148.503 36.3215 147.965 36.2319 146.722C36.1934 146.12 36.0397 145.749 35.3606 144.544C34.3869 142.802 34.2587 142.148 34.72 141.367C34.9762 140.931 35.0275 140.624 35.1172 138.702C35.2581 135.909 35.3862 135.242 36.0653 133.884C36.7315 132.577 37.1544 131.373 37.1544 130.822C37.1544 130.604 37.0262 130.258 36.8725 130.04L36.5778 129.656L37.1544 128.605C37.9103 127.196 38.2178 126.837 40.0884 125.133C43.0609 122.43 44.5087 121.43 48.8778 118.97C50.364 118.138 52.209 117.023 52.9778 116.485C56.3475 114.153 57.6415 113.359 60.1912 112.065C61.985 111.155 63.1125 110.489 63.5353 110.117C64.304 109.425 65.0472 108.336 66.0465 106.427C66.6744 105.248 66.8025 104.915 66.8537 104.185C66.9562 102.609 66.1875 100.597 64.304 97.5736C63.4969 96.2923 59.32 90.2064 57.3597 87.4645C57.065 87.0545 56.0015 85.927 54.9894 84.9789C52.8112 82.9033 52.4653 82.3523 52.555 81.0839C52.5806 80.6355 52.6959 80.0973 52.7984 79.8923C52.965 79.5464 53.0547 79.4951 53.7081 79.4439C54.6562 79.3542 54.9253 79.098 55.0919 78.0986C55.3481 76.5227 55.22 74.5111 54.6947 72.2561C54.5409 71.577 54.5537 71.4617 54.9381 70.142C55.1559 69.3733 55.5531 67.8742 55.8094 66.8236C56.0784 65.7089 56.6934 63.7486 57.2956 62.147C58.3847 59.213 58.5128 58.9439 58.6537 58.9439C58.705 58.9439 59.1662 59.5205 59.6915 60.2252C60.9728 61.9548 61.6006 62.5314 62.2412 62.5314C62.9844 62.5314 63.9709 61.9677 64.7525 61.1092C65.265 60.5327 65.7775 59.687 66.7256 57.8164C68.3784 54.562 68.5578 53.9598 68.9294 49.783C69.1087 47.797 69.3906 46.1955 69.7109 45.1961C69.9287 44.5426 69.9928 43.8764 70.0953 41.3908C70.1594 39.4945 70.1594 37.9955 70.0825 37.3548C70.0056 36.7911 69.9544 36.0351 69.9544 35.6764C69.9544 35.0742 69.9159 34.9845 69.5187 34.677C69.2497 34.472 69.019 34.1517 68.9165 33.8058C68.75 33.2933 68.6603 33.2164 67.7122 32.7423C66.7256 32.2426 66.6615 32.2298 65.3675 32.2298C64.0734 32.2298 64.0222 32.217 63.8172 31.9095C63.3944 31.2561 62.3181 30.2183 61.4853 29.6545C60.3706 28.9242 58.3206 27.9505 56.655 27.3739C55.9375 27.1305 55.2328 26.8614 55.1047 26.7973C54.7203 26.5923 54.4512 25.8492 54.4512 25.0292C54.4512 24.2861 54.9765 22.2233 55.3353 21.5442C55.4506 21.3392 56.1297 20.942 57.4494 20.3014C58.5256 19.7761 59.525 19.2252 59.6531 19.0842C59.8709 18.8408 59.8965 18.6358 59.8581 17.0726C59.8325 15.8298 59.7556 15.2276 59.6275 14.9586C59.4737 14.6767 59.4481 14.3948 59.5122 13.8311C59.5762 13.2417 59.5506 12.9983 59.3969 12.7548C59.0894 12.2808 59.1534 12.0117 59.6403 11.6914C59.9606 11.4864 60.0887 11.307 60.0887 11.0764C60.0887 10.6023 59.8965 10.3076 58.8459 9.18015C57.8209 8.06546 57.6672 7.74515 57.8978 7.11734C58.2181 6.20766 58.0003 5.64391 56.7703 4.38828C56.2834 3.8886 56.245 3.81171 56.3219 3.35046C56.4115 2.74828 56.2194 2.35109 55.4122 1.45421C54.7203 0.672653 53.9515 0.326721 53.1572 0.429214C52.8112 0.467651 52.3628 0.416397 51.8631 0.249832C51.1584 0.0320282 49.8387 -0.0832825 49.685 0.0704651ZM65.47 33.9467C65.47 34.1517 65.1112 34.203 64.9575 34.0108C64.8294 33.857 64.855 33.8314 65.1369 33.8314C65.3162 33.8314 65.47 33.8826 65.47 33.9467ZM65.9184 40.2889C66.2131 40.7245 66.2772 41.647 66.1362 43.3511C66.0081 44.8886 65.8031 45.4908 65.4059 45.4908C65.1369 45.4908 65.0087 45.1064 64.8165 43.7995L64.6628 42.6848L65.0087 42.2877C65.2906 41.9417 65.3419 41.7623 65.3419 41.0192C65.3419 39.9173 65.5212 39.6867 65.9184 40.2889ZM48.4678 100.456C50.4281 101.264 50.9022 101.507 51.6709 102.071C52.35 102.57 52.4653 102.75 52.35 103.198C52.2859 103.442 52.0425 103.57 50.979 103.954C47.3787 105.223 44.6369 107.836 42.0231 112.475C41.6644 113.128 41.0109 114.102 40.5881 114.64C39.6912 115.767 36.1934 119.227 34.8994 120.265C33.6309 121.277 31.9397 122.071 30.6584 122.263C29.2875 122.455 28.775 122.327 28.7237 121.764C28.6469 120.931 29.4669 119.906 31.4528 118.42C33.9512 116.536 34.5919 115.767 35.4759 113.64C36.155 112.013 36.8212 110.899 37.4619 110.335C37.7437 110.079 38.7431 109.105 39.6784 108.17C40.8956 106.978 41.4722 106.478 41.69 106.478C42.3306 106.478 42.8303 105.953 43.6631 104.364C44.1115 103.519 44.7009 102.532 44.97 102.173C45.239 101.827 45.5978 101.238 45.79 100.879C46.0975 100.277 46.5331 99.8158 46.8022 99.8158C46.8662 99.8158 47.6222 100.11 48.4678 100.456Z" fill="#1D2D50"/>
</svg>
